^C:\USERS\XIAOM\SOURCE\REPOS\HOMEWORK_17.5\DEBUG\HOMEWORK_17.5.OBJ
C:\USERS\XIAOM\SOURCE\REPOS\HOMEWORK_17.5\DEBUG\HOMEWORK_17.5.EXE
C:\USERS\XIAOM\SOURCE\REPOS\HOMEWORK_17.5\DEBUG\HOMEWORK_17.5.ILK
C:\USERS\XIAOM\SOURCE\REPOS\HOMEWORK_17.5\DEBUG\HOMEWORK_17.5.PDB
